﻿COUNTRY,SITENUM,SITE_NAME,INSTALL_DATE,LATITUDE,LONGITUDE,ELEV,TIMEZONE,GV,LW,SOC,BD,N0,AGBWEIGHT,RAIN_DATA_SOURCE,TEM_DATA_SOURCE,RH_DATA_SOURCE,BETA_COEFF,REFERENCE_PRESS
USA,11,Santa Rita Creosote,02/06/2010,31.9085,-110.8394,989,-7,5.21,0.01,0.003,1.43,,0,,,,0.007359102,899.9454163
USA,29,Neb Field 3,20/04/2011,41.179859,-96.441235,363,-6,2.17,0.0375,0.0126,1.42,,0.6,,,,0.007374453,970.3953908
USA,43,UMBS,21/07/2011,45.5598,-84.7138,220,-5,1.31,0.0033,0.008,1.29,,18.5,,,,0.007330797,987.0986706