label:number,type:text,uri:url,change:text,changedItem:text,modified:text,Depth_cm:number,Wet_total_g:number,Dry_total_g:number,Tare_g:number,Wet_soil_g:number,Dry_soil_g:number,Soil_water_w_%:number,Bulk_density:number,Soil_water_v_%:number,date:text,Tin_Label:text,Location:text,Volumetric:text
1,Item,http://cosmos.hwr.arizona.edu/Probes/StationDat/043/item#1,,,no,0-5 cm,60.52,54.68,31.84,28.68,22.84,25.57,,7.67,21/07/2011,No Tin ,N25, ---
2,Item,http://cosmos.hwr.arizona.edu/Probes/StationDat/043/item#2,,,no,5-10 cm,146.76,140.13,31.88,114.88,108.25,6.12,1.19,7.3,21/07/2011,No Tin,N25,Vol.
3,Item,http://cosmos.hwr.arizona.edu/Probes/StationDat/043/item#3,,,no,10-15 cm,153.6,148.66,31.8,121.8,116.86,4.23,1.29,5.44,21/07/2011,No Tin,N25,Vol.
4,Item,http://cosmos.hwr.arizona.edu/Probes/StationDat/043/item#4,,,no,15-20 cm,146.1,139.05,32.21,113.89,106.84,6.6,1.18,7.77,21/07/2011,No Tin,N25,Vol.
5,Item,http://cosmos.hwr.arizona.edu/Probes/StationDat/043/item#5,,,no,20-25 cm,146.19,141.57,32.21,113.98,109.36,4.22,,5.74,21/07/2011,No Tin,N25, ---
6,Item,http://cosmos.hwr.arizona.edu/Probes/StationDat/043/item#6,,,no,25-30 cm,161.56,156.67,31.05,130.51,125.62,3.89,1.38,5.39,21/07/2011,No Tin,N25,Vol.
7,Item,http://cosmos.hwr.arizona.edu/Probes/StationDat/043/item#7,,,no,0-5 cm,124.61,120.19,32.04,92.57,88.15,5.01,0.97,4.87,21/07/2011,No Tin,N75,Vol.
8,Item,http://cosmos.hwr.arizona.edu/Probes/StationDat/043/item#8,,,no,5-10 cm,118.99,116.83,32.06,86.93,84.77,2.55,,3.09,21/07/2011,No Tin,N75, ---
9,Item,http://cosmos.hwr.arizona.edu/Probes/StationDat/043/item#9,,,no,10-15 cm,156.33,153.06,32.17,124.16,120.89,2.7,1.33,3.6,21/07/2011,No Tin,N75,Vol.
10,Item,http://cosmos.hwr.arizona.edu/Probes/StationDat/043/item#10,,,no,15-20 cm,149.81,145.8,31.83,117.98,113.97,3.52,1.26,4.42,21/07/2011,No Tin,N75,Vol.
11,Item,http://cosmos.hwr.arizona.edu/Probes/StationDat/043/item#11,,,no,20-25 cm,135.07,131.16,32.14,102.93,99.02,3.95,,5.37,21/07/2011,No Tin,N75, ---
12,Item,http://cosmos.hwr.arizona.edu/Probes/StationDat/043/item#12,,,no,25-30 cm,170.71,165.26,31.79,138.92,133.47,4.08,1.47,6,21/07/2011,No Tin,N75,Vol.
13,Item,http://cosmos.hwr.arizona.edu/Probes/StationDat/043/item#13,,,no,0-5 cm,57.73,48.01,31.93,25.8,16.08,60.45,,18.13,21/07/2011,No Tin,N200, ---
14,Item,http://cosmos.hwr.arizona.edu/Probes/StationDat/043/item#14,,,no,5-10 cm,132.5,122.2,31.91,100.59,90.29,11.41,0.99,11.35,21/07/2011,No Tin,N200,Vol.
15,Item,http://cosmos.hwr.arizona.edu/Probes/StationDat/043/item#15,,,no,10-15 cm,165.42,158.08,32.28,133.14,125.8,5.83,1.39,8.09,21/07/2011,No Tin,N200,Vol.
16,Item,http://cosmos.hwr.arizona.edu/Probes/StationDat/043/item#16,,,no,15-20 cm,160.63,155.8,29.57,131.06,126.23,3.83,1.39,5.32,21/07/2011,No Tin,N200,Vol.
17,Item,http://cosmos.hwr.arizona.edu/Probes/StationDat/043/item#17,,,no,20-25 cm,170.58,167.28,31.89,138.69,135.39,2.44,1.49,3.64,21/07/2011,No Tin,N200,Vol.
18,Item,http://cosmos.hwr.arizona.edu/Probes/StationDat/043/item#18,,,no,25-30 cm,171.8,168.39,31.87,139.93,136.52,2.5,1.5,3.76,21/07/2011,No Tin ,N200,Vol.
19,Item,http://cosmos.hwr.arizona.edu/Probes/StationDat/043/item#19,,,no,0-5 cm,163,158.57,31.74,131.26,126.83,3.49,1.4,4.88,21/07/2011,No Tin,NE25,Vol.
20,Item,http://cosmos.hwr.arizona.edu/Probes/StationDat/043/item#20,,,no,5-10 cm,149.05,143.97,31.86,117.19,112.11,4.53,1.23,5.6,21/07/2011,No Tin,NE25,Vol.
21,Item,http://cosmos.hwr.arizona.edu/Probes/StationDat/043/item#21,,,no,10-15 cm,150.63,144.59,31.68,118.95,112.91,5.35,1.24,6.65,21/07/2011,No Tin,NE25,Vol.
22,Item,http://cosmos.hwr.arizona.edu/Probes/StationDat/043/item#22,,,no,15-20 cm,149.22,144.32,31.6,117.62,112.72,4.35,1.24,5.4,21/07/2011,No Tin,NE25,Vol.
23,Item,http://cosmos.hwr.arizona.edu/Probes/StationDat/043/item#23,,,no,20-25 cm,156.25,151.31,32.16,124.09,119.15,4.15,1.31,5.44,21/07/2011,No Tin,NE25,Vol.
24,Item,http://cosmos.hwr.arizona.edu/Probes/StationDat/043/item#24,,,no,25-30 cm,172.05,166.21,32.06,139.99,134.15,4.35,1.48,6.43,21/07/2011,No Tin,NE25,Vol.
25,Item,http://cosmos.hwr.arizona.edu/Probes/StationDat/043/item#25,,,no,0-5 cm,96.71,89.56,32.33,64.38,57.23,12.49,0.63,7.88,21/07/2011,No Tin,NE75,Vol.
26,Item,http://cosmos.hwr.arizona.edu/Probes/StationDat/043/item#26,,,no,5-10 cm,142.58,137.66,31.86,110.72,105.8,4.65,1.17,5.42,21/07/2011,No Tin,NE75,Vol.
27,Item,http://cosmos.hwr.arizona.edu/Probes/StationDat/043/item#27,,,no,10-15 cm,163.76,159.77,31.84,131.92,127.93,3.12,1.41,4.4,21/07/2011,No Tin,NE75,Vol.
28,Item,http://cosmos.hwr.arizona.edu/Probes/StationDat/043/item#28,,,no,15-20 cm,161.7,157.54,31.96,129.74,125.58,3.31,1.38,4.58,21/07/2011,No Tin,NE75,Vol.
29,Item,http://cosmos.hwr.arizona.edu/Probes/StationDat/043/item#29,,,no,20-25 cm,160.88,156.64,29.06,131.82,127.58,3.32,,4.52,21/07/2011,No Tin,NE75, ---
30,Item,http://cosmos.hwr.arizona.edu/Probes/StationDat/043/item#30,,,no,25-30 cm,149.27,144.42,31.58,117.69,112.84,4.3,,6.28,21/07/2011,No Tin,NE75, ---
31,Item,http://cosmos.hwr.arizona.edu/Probes/StationDat/043/item#31,,,no,0-5 cm,128.02,120.62,31.86,96.16,88.76,8.34,,2.5,21/07/2011,No Tin,NE200, ---
32,Item,http://cosmos.hwr.arizona.edu/Probes/StationDat/043/item#32,,,no,5-10 cm,157.75,151.8,31.89,125.86,119.91,4.96,1.32,6.55,21/07/2011,No Tin,NE200,Vol.
33,Item,http://cosmos.hwr.arizona.edu/Probes/StationDat/043/item#33,,,no,10-15 cm,155.4,149.03,31.97,123.43,117.06,5.44,1.29,7.02,21/07/2011,No Tin,NE200,Vol.
34,Item,http://cosmos.hwr.arizona.edu/Probes/StationDat/043/item#34,,,no,15-20 cm,141.71,136.85,31.87,109.84,104.98,4.63,1.16,5.35,21/07/2011,No Tin,NE200,Vol.
35,Item,http://cosmos.hwr.arizona.edu/Probes/StationDat/043/item#35,,,no,20-25 cm,161.87,156.68,31.84,130.03,124.84,4.16,1.38,5.72,21/07/2011,No Tin ,NE200,Vol.
36,Item,http://cosmos.hwr.arizona.edu/Probes/StationDat/043/item#36,,,no,25-30 cm,185.81,180.02,32.05,153.76,147.97,3.91,1.63,6.38,21/07/2011,No Tin,NE200,Vol.
37,Item,http://cosmos.hwr.arizona.edu/Probes/StationDat/043/item#37,,,no,0-5 cm,124.61,117.77,31.69,92.92,86.08,7.95,,2.38,21/07/2011,No Tin,SE25, ---
38,Item,http://cosmos.hwr.arizona.edu/Probes/StationDat/043/item#38,,,no,5-10 cm,136.07,131.84,31.11,104.96,100.73,4.2,,5.09,21/07/2011,No Tin,SE25, ---
39,Item,http://cosmos.hwr.arizona.edu/Probes/StationDat/043/item#39,,,no,10-15 cm,147.01,143.65,32.01,115,111.64,3.01,1.23,3.7,21/07/2011,No Tin,SE25,Vol.
40,Item,http://cosmos.hwr.arizona.edu/Probes/StationDat/043/item#40,,,no,15-20 cm,141.49,137.71,31.85,109.64,105.86,3.57,1.17,4.16,21/07/2011,No Tin,SE25,Vol.
41,Item,http://cosmos.hwr.arizona.edu/Probes/StationDat/043/item#41,,,no,20-25 cm,161.44,156.27,31.79,129.65,124.48,4.15,1.37,5.7,21/07/2011,No Tin,SE25,Vol.
42,Item,http://cosmos.hwr.arizona.edu/Probes/StationDat/043/item#42,,,no,25-30 cm,170.98,165.13,32.21,138.77,132.92,4.4,1.46,6.44,21/07/2011,No Tin,SE25,Vol.
43,Item,http://cosmos.hwr.arizona.edu/Probes/StationDat/043/item#43,,,no,0-5 cm,119.08,109.22,31.93,87.15,77.29,12.76,,3.83,21/07/2011,No Tin,SE75, ---
44,Item,http://cosmos.hwr.arizona.edu/Probes/StationDat/043/item#44,,,no,5-10 cm,154.14,147.99,31.07,123.07,116.92,5.26,1.29,6.77,21/07/2011,No Tin,SE75,Vol.
45,Item,http://cosmos.hwr.arizona.edu/Probes/StationDat/043/item#45,,,no,10-15 cm,162.58,158.16,32.08,130.5,126.08,3.51,1.39,4.87,21/07/2011,No Tin,SE75,Vol.
46,Item,http://cosmos.hwr.arizona.edu/Probes/StationDat/043/item#46,,,no,15-20 cm,171.29,167.5,31.84,139.45,135.66,2.79,1.49,4.17,21/07/2011,No Tin,SE75,Vol.
47,Item,http://cosmos.hwr.arizona.edu/Probes/StationDat/043/item#47,,,no,20-25 cm,162.61,157.62,31.81,130.8,125.81,3.97,1.39,5.5,21/07/2011,No Tin,SE75,Vol.
48,Item,http://cosmos.hwr.arizona.edu/Probes/StationDat/043/item#48,,,no,25-30 cm,172.66,166.16,31.84,140.82,134.32,4.84,1.48,7.16,21/07/2011,No Tin,SE75,Vol.
49,Item,http://cosmos.hwr.arizona.edu/Probes/StationDat/043/item#49,,,no,0-5 cm,121.26,115.74,31.87,89.39,83.87,6.58,,1.97,21/07/2011,No Tin,SE200, ---
50,Item,http://cosmos.hwr.arizona.edu/Probes/StationDat/043/item#50,,,no,5-10 cm,145.82,139.29,32.01,113.81,107.28,6.09,,7.37,21/07/2011,No Tin,SE200, ---
51,Item,http://cosmos.hwr.arizona.edu/Probes/StationDat/043/item#51,,,no,10-15 cm,158.9,155.87,31.88,127.02,123.99,2.44,,3.18,21/07/2011,No Tin,SE200, ---
52,Item,http://cosmos.hwr.arizona.edu/Probes/StationDat/043/item#52,,,no,15-20 cm,146.38,142.23,31.94,114.44,110.29,3.76,1.21,4.57,21/07/2011,No Tin ,SE200,Vol.
53,Item,http://cosmos.hwr.arizona.edu/Probes/StationDat/043/item#53,,,no,20-25 cm,163.66,159.24,30.6,133.06,128.64,3.44,,4.67,21/07/2011,No Tin,SE200, ---
54,Item,http://cosmos.hwr.arizona.edu/Probes/StationDat/043/item#54,,,no,25-30 cm,165.03,159.61,31.86,133.17,127.75,4.24,1.41,5.97,21/07/2011,No Tin,SE200,Vol.
55,Item,http://cosmos.hwr.arizona.edu/Probes/StationDat/043/item#55,,,no,0-5 cm,92.12,80.33,31.68,60.44,48.65,24.23,,7.27,21/07/2011,No Tin,S25, ---
56,Item,http://cosmos.hwr.arizona.edu/Probes/StationDat/043/item#56,,,no,5-10 cm,140.58,130.25,31.87,108.71,98.38,10.5,1.08,11.38,21/07/2011,No Tin,S25,Vol.
57,Item,http://cosmos.hwr.arizona.edu/Probes/StationDat/043/item#57,,,no,10-15 cm,148.13,142.88,31.91,116.22,110.97,4.73,1.22,5.78,21/07/2011,No Tin,S25,Vol.
58,Item,http://cosmos.hwr.arizona.edu/Probes/StationDat/043/item#58,,,no,15-20 cm,163.09,158.31,31.75,131.34,126.56,3.78,1.39,5.27,21/07/2011,No Tin,S25,Vol.
59,Item,http://cosmos.hwr.arizona.edu/Probes/StationDat/043/item#59,,,no,20-25 cm,163.81,158.74,31.95,131.86,126.79,4,,5.44,21/07/2011,No Tin,S25, ---
60,Item,http://cosmos.hwr.arizona.edu/Probes/StationDat/043/item#60,,,no,25-30 cm,151.54,145.45,32.06,119.48,113.39,5.37,1.25,6.71,21/07/2011,No Tin,S25,Vol.
61,Item,http://cosmos.hwr.arizona.edu/Probes/StationDat/043/item#61,,,no,0-5 cm,137.76,127.96,31.78,105.98,96.18,10.19,1.06,10.8,21/07/2011,No Tin,S75,Vol.
62,Item,http://cosmos.hwr.arizona.edu/Probes/StationDat/043/item#62,,,no,5-10 cm,153.42,145.93,31.76,121.66,114.17,6.56,1.26,8.25,21/07/2011,No Tin,S75,Vol.
63,Item,http://cosmos.hwr.arizona.edu/Probes/StationDat/043/item#63,,,no,10-15 cm,177.09,169.44,32.03,145.06,137.41,5.57,1.51,8.43,21/07/2011,No Tin,S75,Vol.
64,Item,http://cosmos.hwr.arizona.edu/Probes/StationDat/043/item#64,,,no,15-20 cm,182.86,173.18,31.9,150.96,141.28,6.85,1.56,10.66,21/07/2011,No Tin,S75,Vol.
65,Item,http://cosmos.hwr.arizona.edu/Probes/StationDat/043/item#65,,,no,20-25 cm,189.12,182.11,31.84,157.28,150.27,4.66,1.66,7.72,21/07/2011,No Tin,S75,Vol.
66,Item,http://cosmos.hwr.arizona.edu/Probes/StationDat/043/item#66,,,no,25-30 cm,207.01,199.8,31.95,175.06,167.85,4.3,1.85,7.94,21/07/2011,No Tin,S75,Vol.
67,Item,http://cosmos.hwr.arizona.edu/Probes/StationDat/043/item#67,,,no,0-5 cm,58.02,51.75,31.75,26.27,20,31.35,,9.41,21/07/2011,No Tin,S200, ---
68,Item,http://cosmos.hwr.arizona.edu/Probes/StationDat/043/item#68,,,no,5-10 cm,137.62,130.63,31.85,105.77,98.78,7.08,1.09,7.7,21/07/2011,No Tin,S200,Vol.
69,Item,http://cosmos.hwr.arizona.edu/Probes/StationDat/043/item#69,,,no,10-15 cm,153.12,147.64,31.73,121.39,115.91,4.73,1.28,6.04,21/07/2011,No Tin ,S200,Vol.
70,Item,http://cosmos.hwr.arizona.edu/Probes/StationDat/043/item#70,,,no,15-20 cm,159.62,153.95,32.26,127.36,121.69,4.66,1.34,6.25,21/07/2011,No Tin,S200,Vol.
71,Item,http://cosmos.hwr.arizona.edu/Probes/StationDat/043/item#71,,,no,20-25 cm,151.27,145.06,31.88,119.39,113.18,5.49,1.25,6.84,21/07/2011,No Tin,S200,Vol.
72,Item,http://cosmos.hwr.arizona.edu/Probes/StationDat/043/item#72,,,no,25-30 cm,167.51,160.16,31.88,135.63,128.28,5.73,1.41,8.1,21/07/2011,No Tin,S200,Vol.
73,Item,http://cosmos.hwr.arizona.edu/Probes/StationDat/043/item#73,,,no,0-5 cm,46.66,41.29,31.95,14.71,9.34,57.49,,17.25,21/07/2011,No Tin,SW25, ---
74,Item,http://cosmos.hwr.arizona.edu/Probes/StationDat/043/item#74,,,no,5-10 cm,126.78,121.9,31.73,95.05,90.17,5.41,,6.56,21/07/2011,No Tin,SW25, ---
75,Item,http://cosmos.hwr.arizona.edu/Probes/StationDat/043/item#75,,,no,10-15 cm,155.42,150.37,31.92,123.5,118.45,4.26,1.3,5.56,21/07/2011,No Tin,SW25,Vol.
76,Item,http://cosmos.hwr.arizona.edu/Probes/StationDat/043/item#76,,,no,15-20 cm,153.08,145.91,29.78,123.3,116.13,6.17,1.28,7.9,21/07/2011,No Tin,SW25,Vol.
77,Item,http://cosmos.hwr.arizona.edu/Probes/StationDat/043/item#77,,,no,20-25 cm,163.33,154.3,31.13,132.2,123.17,7.33,1.36,9.95,21/07/2011,No Tin,SW25,Vol.
78,Item,http://cosmos.hwr.arizona.edu/Probes/StationDat/043/item#78,,,no,25-30 cm,166.88,157.67,31.75,135.13,125.92,7.31,1.39,10.15,21/07/2011,No Tin,SW25,Vol.
79,Item,http://cosmos.hwr.arizona.edu/Probes/StationDat/043/item#79,,,no,0-5 cm,118.86,111.39,31.49,87.37,79.9,9.35,,2.8,21/07/2011,No Tin,SW75, ---
80,Item,http://cosmos.hwr.arizona.edu/Probes/StationDat/043/item#80,,,no,5-10 cm,144.49,139.52,31.8,112.69,107.72,4.61,1.19,5.47,21/07/2011,No Tin,SW75,Vol.
81,Item,http://cosmos.hwr.arizona.edu/Probes/StationDat/043/item#81,,,no,10-15 cm,142.45,137.52,31.26,111.19,106.26,4.64,1.17,5.43,21/07/2011,No Tin,SW75,Vol.
82,Item,http://cosmos.hwr.arizona.edu/Probes/StationDat/043/item#82,,,no,15-20 cm,141.44,136.53,32.12,109.32,104.41,4.7,1.15,5.41,21/07/2011,No Tin,SW75,Vol.
83,Item,http://cosmos.hwr.arizona.edu/Probes/StationDat/043/item#83,,,no,20-25 cm,152.76,148.19,32.3,120.46,115.89,3.94,,5.36,21/07/2011,No Tin,SW75, ---
84,Item,http://cosmos.hwr.arizona.edu/Probes/StationDat/043/item#84,,,no,25-30 cm,166.69,162.13,31.88,134.81,130.25,3.5,1.43,5.02,21/07/2011,No Tin,SW75,Vol.
85,Item,http://cosmos.hwr.arizona.edu/Probes/StationDat/043/item#85,,,no,0-5 cm,111.62,98.9,31.95,79.67,66.95,19,0.74,14.01,21/07/2011,No Tin,SW200,Vol.
86,Item,http://cosmos.hwr.arizona.edu/Probes/StationDat/043/item#86,,,no,5-10 cm,159.44,153.37,32.08,127.36,121.29,5,1.34,6.69,21/07/2011,No Tin ,SW200,Vol.
87,Item,http://cosmos.hwr.arizona.edu/Probes/StationDat/043/item#87,,,no,10-15 cm,154.19,144.95,32.17,122.02,112.78,8.19,1.24,10.18,21/07/2011,No Tin,SW200,Vol.
88,Item,http://cosmos.hwr.arizona.edu/Probes/StationDat/043/item#88,,,no,15-20 cm,138.41,131.81,32.07,106.34,99.74,6.62,1.1,7.27,21/07/2011,No Tin,SW200,Vol.
89,Item,http://cosmos.hwr.arizona.edu/Probes/StationDat/043/item#89,,,no,20-25 cm,149.89,145.84,31.87,118.02,113.97,3.55,1.26,4.46,21/07/2011,No Tin,SW200,Vol.
90,Item,http://cosmos.hwr.arizona.edu/Probes/StationDat/043/item#90,,,no,25-30 cm,163.07,158.87,31.24,131.83,127.63,3.29,1.41,4.63,21/07/2011,No Tin,SW200,Vol.
91,Item,http://cosmos.hwr.arizona.edu/Probes/StationDat/043/item#91,,,no,0-5 cm,102.69,92.6,31.9,70.79,60.7,16.62,,4.99,21/07/2011,No Tin,NW25, ---
92,Item,http://cosmos.hwr.arizona.edu/Probes/StationDat/043/item#92,,,no,5-10 cm,100.95,94.08,31.82,69.13,62.26,11.03,,13.37,21/07/2011,No Tin,NW25, ---
93,Item,http://cosmos.hwr.arizona.edu/Probes/StationDat/043/item#93,,,no,10-15 cm,144.95,138.81,31.75,113.2,107.06,5.74,1.18,6.76,21/07/2011,No Tin,NW25,Vol.
94,Item,http://cosmos.hwr.arizona.edu/Probes/StationDat/043/item#94,,,no,15-20 cm,153.39,145.97,32.31,121.08,113.66,6.53,1.25,8.17,21/07/2011,No Tin,NW25,Vol.
95,Item,http://cosmos.hwr.arizona.edu/Probes/StationDat/043/item#95,,,no,20-25 cm,148.05,143.21,31.86,116.19,111.35,4.35,1.23,5.33,21/07/2011,No Tin,NW25,Vol.
96,Item,http://cosmos.hwr.arizona.edu/Probes/StationDat/043/item#96,,,no,25-30 cm,104.03,99.21,31.83,72.2,67.38,7.15,,10.45,21/07/2011,No Tin,NW25, ---
97,Item,http://cosmos.hwr.arizona.edu/Probes/StationDat/043/item#97,,,no,0-5 cm,66.66,60.08,31.89,34.77,28.19,23.34,,7,21/07/2011,No Tin,NW75, ---
98,Item,http://cosmos.hwr.arizona.edu/Probes/StationDat/043/item#98,,,no,10-15 cm,148.16,139.36,32.18,115.98,107.18,8.21,1.18,9.69,21/07/2011,No Tin,NW75,Vol.
99,Item,http://cosmos.hwr.arizona.edu/Probes/StationDat/043/item#99,,,no,10-15 cm,154.79,146.68,31.83,122.96,114.85,7.06,1.27,8.93,21/07/2011,No Tin,NW75,Vol.
100,Item,http://cosmos.hwr.arizona.edu/Probes/StationDat/043/item#100,,,no,15-20 cm,156.69,147.57,32.16,124.53,115.41,7.9,1.27,10.05,21/07/2011,No Tin,NW75,Vol.
101,Item,http://cosmos.hwr.arizona.edu/Probes/StationDat/043/item#101,,,no,20-25 cm,156.65,148.03,32.06,124.59,115.97,7.43,1.28,9.5,21/07/2011,No Tin,NW75,Vol.
102,Item,http://cosmos.hwr.arizona.edu/Probes/StationDat/043/item#102,,,no,25-30 cm,168.33,160.74,32.16,136.17,128.58,5.9,1.42,8.36,21/07/2011,No Tin,NW75,Vol.
103,Item,http://cosmos.hwr.arizona.edu/Probes/StationDat/043/item#103,,,no,0-5 cm,112.33,103.83,31.97,80.36,71.86,11.83,0.79,9.36,21/07/2011,No Tin ,NW200,Vol.
104,Item,http://cosmos.hwr.arizona.edu/Probes/StationDat/043/item#104,,,no,10-15 cm,165.16,160.8,31.78,133.38,129.02,3.38,1.42,4.8,21/07/2011,No Tin,NW200,Vol.
105,Item,http://cosmos.hwr.arizona.edu/Probes/StationDat/043/item#105,,,no,15-20 cm,159.25,154.91,32,127.25,122.91,3.53,1.35,4.78,21/07/2011,No Tin,NW200,Vol.
106,Item,http://cosmos.hwr.arizona.edu/Probes/StationDat/043/item#106,,,no,15-20 cm,111.92,104.3,31.88,80.04,72.42,10.52,0.8,8.39,21/07/2011,No Tin,NW200,Vol.
107,Item,http://cosmos.hwr.arizona.edu/Probes/StationDat/043/item#107,,,no,20-25 cm,160.12,155.63,31.94,128.18,123.69,3.63,1.36,4.95,21/07/2011,No Tin,NW200,Vol.
108,Item,http://cosmos.hwr.arizona.edu/Probes/StationDat/043/item#108,,,no,25-30 cm,164.03,159.2,32.26,131.77,126.94,3.8,1.4,5.32,21/07/2011,No Tin,NW200,Vol.
